id,name,point
1,subasa,0
2,taromisaki,0
3,wakibayashi,0
4,kojiro,0
5,matsuyama,0
6,shingo,0
7,ishizaki,0
8,misugi,0
9,wakashizuma,0
10,takeshi,0
11,tachiban,0
12,mitsuru,0
13,kazuki,0
14,kisugi,0
15,takasugi,0
16,morisaki,0
17,gino,0
18,diaz,0
19,schneider,0
20,makoto,0
21,natureza,0
22,xiao,0
23,taki,0
24,michael,0
25,izawa,0
26,shunitta,0
27,hiroshi,0
